{
  "structure": {
    "id": "Will be render to html file name. For example: id = index will be rendered to index.html",
    "parentId[number]": {
      "explanation": "Manage folder rendering structure the html. Example below",
      "parentId1": "data => domain.com/data/id.html",
      "parentId2": "data => domain.com/data/data/id.html"
    },
    "template": "Name of corresponding EJS file",
    "title": "Title of the page, will be display in browser title",
    "description": "Description of the page",
    "description_meta": "Description meta of the page",
    "keyword": "Keyword of the page",
    "h1": "Some custom properties, here it's h1 tag for each page. You can add more custom properties for each page",
    "depth": {
      "explanation": "Set for correct render relative path from EJS to HTML. Example below",
      "0": "<%= RELATIVE_PATH %>image/abc.img => ./image/abc.img",
      "1": "<%= RELATIVE_PATH %>image/abc.img => ../image/abc.img",
      "2": "<%= RELATIVE_PATH %>image/abc.img => ../../image/abc.img"
    }
  },
  "pages": [
    {
      "id": "index",
      "parentId1": "",
      "parentId2": "",
      "parentId3": "",
      "parentId4": "",
      "template": "index",
      "title": "トップページ",
      "description": "************",
      "description_meta": "************",
      "keyword": "************",
      "h1": "",
      "depth": 0
    },
    {
      "id": "test",
      "parentId1": "",
      "parentId2": "",
      "parentId3": "",
      "parentId4": "",
      "template": "test",
      "title": "Test page",
      "description": "************",
      "description_meta": "************",
      "keyword": "************",
      "h1": "",
      "depth": 0
    }
  ]
}
